{
  "auth": {
    "khelowebapp921ece35": {
      "service": "Cognito",
      "serviceType": "imported",
      "providerPlugin": "awscloudformation",
      "dependsOn": [],
      "customAuth": false
    }
  }
}